3 Simple Linear Regression: A Model for the Mean – R Manual for Stat 230
…
Residual standard error: 0.406 on 22 degrees of freedom
Multiple R-squared:  0.623, Adjusted R-squared:  0.605 
F-statistic: 36.3 on 1 and 22 DF,  p-value: 4.61e-06

The estimated parameter for the intercept is 0.3992 megaparsecs and the estimated parameter for velocity is 0.0014 megaparsecs/(km/sec). The estimated mean function is \(\hat{mu} (\text{distance}|\text{velocity}) = 0.3992 + 0.0014 (\text{velocity})\). The estimate of the residual standard error is 0.4056 megaparsecs with 22 degrees of freedom. These results are also presented by Display 7.9 (page 187).

Display 7.8 (page 186) shows the list of fitted values and residuals for this model. We can easily obtain these using the augment function in the broom package (these are in the .fitted column).

bang_augmented <- augment(mod1)
bang_augmented

# A tibble: 24 × 8
   Distance Velocity .fitted  .resid   .hat .sigma   .cooksd .std.resid
      <dbl>    <int>   <dbl>   <dbl>  <dbl>  <dbl>     <dbl>      <dbl>
 1     0.03      170  0.632  -0.602  0.0547  0.393 0.0675       -1.53  
 2     0.03      290  0.797  -0.767  0.0438  0.378 0.0858       -1.93  
 3     0.21     -130  0.221  -0.0108 0.122   0.415 0.0000554    -0.0283
 4     0.26      -70  0.303  -0.0431 0.104   0.415 0.000728     -0.112 
 5     0.28     -185  0.145   0.135  0.140   0.414 0.0104        0.358 
 6     0.28     -220  0.0972  0.183  0.153   0.413 0.0216        0.489 
 7     0.45      200  0.674  -0.224  0.0511  0.412 0.00863      -0.566 
 8     0.5       290  0.797  -0.297  0.0438  0.410 0.0129       -0.749 
 9     0.5       270  0.770  -0.270  0.0450  0.411 0.0109       -0.680 
10     0.63      200  0.674  -0.0437 0.0511  0.415 0.000329     -0.110 
# ℹ 14 more rows
…
